…
    ## Rows: 313 Columns: 11
    ## ── Column specification ────────────────────────────────────────────────────────
    ## Delimiter: ","
    ## chr (8): Fecha, year, evento, detalles, causa, perjuicio, zona, links_images
    ## dbl (3): id, x, y
    ## 
    ## ℹ Use `spec()` to retrieve the full column specification for this data.
    ## ℹ Specify the column types or set `show_col_types = FALSE` to quiet this message.

``` r
test
```

    ## # A tibble: 313 × 11
    ##       id     x     y Fecha      year  evento detal…¹ causa perju…² zona  links…³
    ##    <dbl> <dbl> <dbl> <chr>      <chr> <chr>  <chr>   <chr> <chr>   <chr> <chr>  
    ##  1     0 -71.3 -40.1 27/05/2021 2021  caida… arbol … vien… materi… regi… https:…
    ##  2     1 -71.3 -40.1 24/05/2021 2021  caida… arbol … vien… lineas… ruta… https:…
    ##  3     2 -71.4 -40.2 27/05/2021 2021  accid… caida … vien… corte … Riva… <NA>   
    ##  4     3 -71.3 -40.1 27/05/2021 2021  caida… caida … vien… ninguno alto… https:…
    ##  5     4 -71.4 -40.2 24/05/2021 2021  caida… caida … vien… predio… cost… https:…
    ##  6     5 -71.4 -40.2 24/05/2021 2021  caida… caida … vien… linea … cent… https:…
    ##  7     6 -71.3 -40.1 24/05/2021 2021  caida… caida … vien… ninguno escu… https:…
    ##  8     7 -71.3 -40.1 27/05/2021 2021  caida… caida … vien… materi… alto… https:…
    ##  9     8 -71.2 -40.1 27/06/2021 2021  caida… caida … vien… ninguno el p… https:…
    ## 10     9 -71.3 -40.1 27/05/2021 2021  event… inunda… aceq… ninguno chac… https:…
    ## # … with 303 more rows, and abbreviated variable names ¹​detalles, ²​perjuicio,
    ## #   ³​links_images
…
